{
  "type": "service_account",
  "project_id": "firestore-chart-goty",
  "private_key_id": "5bfa2d1b7d59d75829c65558c7481f67b69be154",
  "private_key": "-----BEGIN PRIVATE KEY-----\nMIIEvgIBADANBgkqhkiG9w0BAQEFAASCBKgwggSkAgEAAoIBAQCmH2+4CFzCmu0V\n/kPTTEnvSEvyZ9dics7PSTdxunOJcBLeZ/js/X/x4rHs82G94XX6SqyWmRGS85bh\niNEJimAm30k/72qvXcs6P6KUdYSnwXRZ8rr1wZuToWY2eSNyaj1TCLD58wEgeVMJ\n8yCseJHV00S8R3Zwj6yWIEeBNzPOCmnzBih/qLqasVtq5ofy/fQy0oQ4PvC/Ax4W\nyC+beHYACTeY8u5XpZXwPfPWmjZcEg8KbH02NpWzvhZZfaqzxYqvcCesSBbmiMXt\nQ729fjwsv7QUf52o5vfMAq9NlIaYJEVyaOjq5T6pjkGk4/rAfkCyHL9PpdWrrodP\nle3ek9dHAgMBAAECggEAA/bC3ki2Zev3QkuwTjqgyc8XONaJFilLjZ8SoQN9veBo\n76baRe8A/lv8oONoO3USZDS9Je7LGfWQ1E4RptrT01M6o5+3E2FdxKsMc+LSyOn3\na8bV9tOpPn5e1DS5x5rvXnhznwZqykQuDhIfsnd1PpcgkCZbliRngUGN7NbM+EEC\nqLRpXBqMhsX8dp7CiuaN4J5R/WccLnfdVpjR6zsmNupn9i0HmfcOqql6BZlfAVxc\nFL+sYfmz+XfOKUHTPWySZVVnFQsXFCYpSOgLy20IBzg4GMyNIdHBzvu7wrJ/3odB\nGjjGiGSG/7S9TA/UJthCIqPjzWh4OKw8P54gCQDOkQKBgQDmLqq7e/J9S5uYVqBn\n6K/PFyIxhq61CVPPtiLglsQhFl1ppAUgysiwPkhdrtwYWO1WSjf9S0HlcMeb8hIR\nKHFSermSAp7e3mefhoJVzIZZgNNp8im9OhVBgvsUz8aPD3KYIsVATqCWabIYmyPI\n42zI1JHg+xCmkqkar48bv3l1zwKBgQC4wWYfGvkGlD9vXCs35frbJrkH3F85D658\nkI1jkjtIGbsuFimGmhSd6Gqe+5v3yD+gs4q3onQoEJP9OdCOb+PqXSX3UiZEwvEU\nvjemK3BlM10gvzBE0iPaoyRLJ9FHe3qzQeh8tdQxsJBVCp05tZTLb7nPz2oPQBq3\n/FPAv3XdCQKBgQDV2Mk5gT+ZdCLL9r7zilO7W8yionOxMUcyFA53BNqVusdyG7W/\n72Vfh52Hm6pS3Fsy7aTyp3ZDCPIJSW3Ljv0pGWdJ5TFf8NPoevifaXHvuSWwqhBp\nAos4380QWrAnvLxD5xnGUsYSt4OEJK2sNs2cDxCwKdAgUOTWLAASUWMwNQKBgHg6\notIrI1L8tispt5YwuwZSNKbA6dagNdQp3VimmJ1a4Uwkb/F/41q/HGNJKT4dugpB\nzEukFCLeZu+q5+VJOvAQndxMQUsN8QSmpGAmdIXm3vuobyjZ9ysYb03ZI395A2gT\nw88kJGoRlFtDBP3BBIs+sZRiTYqPFNQWCAqujWzBAoGBAKqee3jbYGDPD2LRMYUQ\nPvJ7ZLiBA75CHiBD8zDk0b5Td9oLg9KqieEk0tSFSYbtkzYu0+2YNBevDlOlp0Q1\nP9miue5ByMJ583wN7Tl8+71nF19Qy5q8xfM5dvUY7oqcbps1JaZ4WQmttCz1ZpG7\nrePqQ1h2N+gwpN4RVgGp9XHd\n-----END PRIVATE KEY-----\n",
  "client_email": "firebase-adminsdk-pe71p@firestore-chart-goty.iam.gserviceaccount.com",
  "client_id": "114961767083856446070",
  "auth_uri": "https://accounts.google.com/o/oauth2/auth",
  "token_uri": "https://oauth2.googleapis.com/token",
  "auth_provider_x509_cert_url": "https://www.googleapis.com/oauth2/v1/certs",
  "client_x509_cert_url": "https://www.googleapis.com/robot/v1/metadata/x509/firebase-adminsdk-pe71p%40firestore-chart-goty.iam.gserviceaccount.com"
}
